<?xml version="1.0" standalone="no"?>
<!DOCTYPE svg PUBLIC "-//W3C//DTD SVG 1.0//EN" "http://www.w3.org/TR/2001/REC-SVG-20010904/DTD/svg10.dtd">
<svg xmlns="http://www.w3.org/2000/svg" xmlns:xlink="http://www.w3.org/1999/xlink" id="body_1" width="130" height="130">

<g transform="matrix(0.8609272 0 0 0.8609272 -0 26.688742)">
    <path d="M0 0L151 0L151 89L0 89z" stroke="none" fill="none" />
</g>
</svg>